R绘图系列-绘制百分比柱状图以及优化 | showteeth's blog
…
cluster_with_cellnum_plot %>% 
  # 数据按ident进行分组
  dplyr::group_by (ident) %>% 
  # mutate() adds new variables and preserves existing ones
  # mutate在添加新变量的同时保留原始的变量信息
  # 新增的变量名称为frac
  dplyr::mutate(frac=round(cell_num/sum(cell_num),4))

# 输出结果：
  # A tibble: 44 x 4
  # Groups:   ident [4]
    cell_num ident          cluster   frac
        <int> <chr>            <int>  <dbl>
  1     4317 zebra_mut_3h         0 0.385 
  2     1314 zebra_mut_sham       0 0.105 
  3      297 zebra_wt_3h          0 0.0412
  4      720 zebra_wt_sham        0 0.190 
  5     5129 zebra_mut_3h         1 0.457 
  6     1425 zebra_mut_sham       1 0.114 
  7       28 zebra_wt_3h          1 0.0039
  8       35 zebra_wt_sham        1 0.0092
  9      614 zebra_mut_3h         2 0.0547
  10     2385 zebra_mut_sham       2 0.191 
  # … with 34 more rows
…
