R系列之使用dplyr处理数据 | showteeth's blog
…
trafficstops %>% 
  dplyr::filter(!is.na(subject_race)) %>% 
    dplyr::group_by(county_name,subject_race) %>% 
      dplyr::summarise(mean_age=mean(subject_age,na.rm=TRUE),min_age=min(subject_age,na.rm=TRUE))
  # A tibble: 308 x 4
  # Groups:   county_name [83]
    county_name   subject_race           mean_age min_age
    <fct>         <fct>                     <dbl>   <int>
  1 Adams County  asian/pacific islander     55        55
  2 Adams County  black                      34.3      16
  3 Adams County  other                      38.4      19
  4 Adams County  white                      37.2      16
  5 Alcorn County asian/pacific islander     64        57
  6 Alcorn County black                      32.8      16
  7 Alcorn County other                      29.6      16
  8 Alcorn County white                      32.7      15
  9 Amite County  black                      36.4      16
  10 Amite County  other                      34.6      19
  # … with 298 more rows
…
# freq是得到的新列的名称
data %>%
  dplyr::group_by(ID) %>% 
  dplyr::summarise(freq=n())
  # A tibble: 26 x 2
    ID    freq
    <fct> <int>
  1 A         3
  2 B         3
  3 C         3
  4 D         3
  5 E         3
  6 F         3
  7 G         3
  8 H         3
  9 I         3
  10 J         3
  # … with 16 more rows
…
data %>%
  dplyr::group_by(ID) %>% 
  dplyr::summarise(max = max(sample1),min = min(sample1),mean = mean(sample1))
  # A tibble: 26 x 4
    ID      max   min  mean
    <fct> <int> <int> <dbl>
  1 A       627   541  592.
  2 B       729    11  259.
  3 C       713    80  381.
  4 D       819   506  675.
  5 E       370    65  231.
  6 F       318   145  223.
  7 G       953   302  627 
  8 H       688   129  332 
  9 I       288   165  212.
  10 J       311   119  190.
  # … with 16 more rows
…
# 对sample1列进行summarise
data %>%
  dplyr::group_by(ID) %>% 
  dplyr::summarise_at("sample1",max)
  # A tibble: 26 x 2
    ID    sample1
    <fct>   <int>
  1 A         627
  2 B         729
  3 C         713
  4 D         819
  5 E         370
  6 F         318
  7 G         953
  8 H         688
  9 I         288
  10 J         311
  # … with 16 more rows
…
# 对sample1、sample2进行summarise
# 执行的统计是相同的：max
data %>%
  dplyr::group_by(ID) %>% 
  dplyr::summarise_at(c("sample1","sample2"),max)
  # A tibble: 26 x 3
    ID    sample1 sample2
    <fct>   <int>   <int>
  1 A         627      85
  2 B         729      59
  3 C         713      92
  4 D         819      75
  5 E         370      77
  6 F         318      72
  7 G         953      96
  8 H         688      89
  9 I         288      49
  10 J         311      90
  # … with 16 more rows
…
# 同时对三列进行summarise
# 执行的统计是相同的：max
data %>%
  dplyr::group_by(ID) %>% 
  dplyr::summarise_all(max)
  # A tibble: 26 x 4
    ID    sample1 sample2 sample3
    <fct>   <int>   <int>   <int>
  1 A         627      85     400
  2 B         729      59     265
  3 C         713      92     461
  4 D         819      75     472
  5 E         370      77     425
  6 F         318      72     450
  7 G         953      96     329
  8 H         688      89     451
  9 I         288      49     249
  10 J         311      90     495
  # … with 16 more rows
…
# max、min、mean是后缀名
# 这里必须要使用list，前面的summarise同时施加多个统计函数就不用
data %>%
  dplyr::group_by(ID) %>% 
  dplyr::summarise_all(list(max = max,min = min,mean = mean))
  # A tibble: 26 x 10
    ID    sample1_max sample2_max sample3_max sample1_min sample2_min sample3_min sample1_mean sample2_mean sample3_mean
    <fct>       <int>       <int>       <int>       <int>       <int>       <int>        <dbl>        <dbl>        <dbl>
  1 A             627          85         400         541          41         241         592.         68.3         335.
  2 B             729          59         265          11          13          31         259.         43.3         124.
  3 C             713          92         461          80          48         151         381.         75.7         274.
  4 D             819          75         472         506          32          74         675.         56.3         216.
  5 E             370          77         425          65          38         169         231.         61           321.
  6 F             318          72         450         145          25         341         223.         44.7         396.
  7 G             953          96         329         302          54         193         627          79.3         280.
  8 H             688          89         451         129          15         393         332          41.3         427.
  9 I             288          49         249         165          30         102         212.         41.3         194.
  10 J             311          90         495         119          27         155         190.         56.3         380 
  # … with 16 more rows
…
# 直接对所有的列进行求最大值
# 报错，因为存在字符
data %>%
  dplyr::group_by(ID) %>% 
  dplyr::summarise_all(max)
  Error in Summary.factor(c(1L, 12L, 25L), na.rm = FALSE) : 
  ‘max’ not meaningful for factors

# 先判断需要进行summarise的列，然后进行summarise
data %>%
  dplyr::group_by(ID) %>% 
  dplyr::summarise_if(is.numeric,max)
  # A tibble: 26 x 3
    ID    sample1 sample2
    <fct>   <int>   <int>
  1 A         803      69
  2 B         994      89
  3 C         748      94
  4 D         890      82
  5 E         888      72
  6 F         953      19
  7 G         883      75
  8 H         762      79
  9 I         906      34
  10 J         929      85
  # … with 16 more rows
…
# 使用tally(sort=TRUE)替换dplyr::summarise(freq=n())
trafficstops %>% 
  dplyr::group_by(department_id) %>%
  tally(sort=TRUE)
  # A tibble: 455 x 2
    department_id     n
            <int> <int>
  1          2504 33438
  2          1801 27620
  3          4504 17479
  4          1704 14776
  5          6104 14711
  6          2401 14145
  7          1703 13984
  8          5302 13620
  9          4107 13586
  10          1702 13046
  # … with 445 more rows

# 等同于
trafficstops %>% 
  dplyr::group_by(department_id) %>%
  dplyr::summarise(n=n())
  # A tibble: 455 x 2
    department_id     n
            <int> <int>
  1             1   174
  2             2   591
  3             3   464
  4             4   551
  5             5    89
  6             6   819
  7             7   200
  8             8   617
  9             9   479
  10            10   494
  # … with 445 more rows

# 也可以等同于
trafficstops %>% 
  dplyr::count(department_id)
  # A tibble: 455 x 2
    department_id     n
            <int> <int>
  1             1   174
  2             2   591
  3             3   464
  4             4   551
  5             5    89
  6             6   819
  7             7   200
  8             8   617
  9             9   479
  10            10   494
  # … with 445 more rows
…
